1 Datahantering och grafer | R-anvisningar till Grundläggande statistik
…
Uppgift 1.14  (Alea iacta est) Använd datan i objektet dat_dice och skapa ett diagram med kolumnen kast på x-axeln och kolumnen Utfall på y-axeln.

plot(dat_dice$___, dat_dice$___)

1.5.2 Import från en extern fil

Inskrivning av värden är ofta tidskrävande och kan lätt leda till misstag. Det är därför mycket vanligare att data läses in från en extern fil. Det finns en mängd funktioner för dataimport och det exakta valet av funktion beror på vilken typ av fil datan är sparad i. Ett vanligt filformat är .csv (comma separated values). Här importerar vi en fil med data från Spotify. Filen ligger på Github, en populär sida för lagring av filer och kod.

dat <- read_csv("https://raw.githubusercontent.com/adamflr/ST0060-2022/main/Data/Spotify_data.csv") 
                                       # Läs in en csv-fil från Github
dat                                    # Skriv ut objektet dat

## # A tibble: 89,105 × 24
##    artist_name album_name  track_number track_name album_type album_release_date
##    <chr>       <chr>              <dbl> <chr>      <chr>      <chr>             
##  1 100 gecs    1000 gecs …            1 money mac… album      2020-07-10        
##  2 100 gecs    1000 gecs …            2 ringtone … album      2020-07-10        
##  3 100 gecs    1000 gecs …            3 745 stick… album      2020-07-10        
##  4 100 gecs    1000 gecs …            4 gec 2 Ü (… album      2020-07-10        
##  5 100 gecs    1000 gecs …            5 hand crus… album      2020-07-10        
##  6 100 gecs    1000 gecs …            6 800db clo… album      2020-07-10        
##  7 100 gecs    1000 gecs …            7 stupid ho… album      2020-07-10        
##  8 100 gecs    1000 gecs …            8 ringtone … album      2020-07-10        
##  9 100 gecs    1000 gecs …            9 xXXi_wud_… album      2020-07-10        
## 10 100 gecs    1000 gecs …           10 745 stick… album      2020-07-10        
## # ℹ 89,095 more rows
## # ℹ 18 more variables: album_release_year <dbl>, danceability <dbl>,
## #   energy <dbl>, key <dbl>, loudness <dbl>, mode <dbl>, speechiness <dbl>,
## #   acousticness <dbl>, instrumentalness <dbl>, liveness <dbl>, valence <dbl>,
## #   tempo <dbl>, time_signature <dbl>, explicit <lgl>, type <chr>,
## #   key_name <chr>, mode_name <chr>, key_mode <chr>
…
unique(dat$artist_name)                # Skriv ut unika värden i kolumnen artist_name i dat

där unique är en funktion som tar bort alla dubletter och dat$artist_name används för att plocka ut kolumnen artist_name ur tabellen dat.

1.6 Urval ur en tabell med select och filter

En vanlig operation på en tabell är att göra ett urval - antingen ett urval av rader (t.ex. en viss artist), vilket kallas filtrering eller ett urval av variabler (t.ex. artist och albumnamn), vilket kallas selektion. Det finns flera olika sätt att göra ett urval i R. Det traditionella sättet är att använda index inom hakparenteser (t.ex. dat[4, 2] för fjärde raden, andra kolumnen) eller dollartecken för specifika kolumner (t.ex. dat$artist_name för artistnamn). Här fokuseras dock på hur det kan göras med funktionerna filter() och select() från paketet tidyverse.

För att filtrera på ett givet land kan använda pipe-funktionen från datan till en filter-funktion, t.ex.

dat %>%                                # Ta spotify-datan och sen
  filter(artist_name == "Robyn")       # filtrera för en specifik artist

## # A tibble: 1,141 × 24
##    artist_name album_name track_number track_name  album_type album_release_date
##    <chr>       <chr>             <dbl> <chr>       <chr>      <chr>             
##  1 Robyn       Honey                 1 Missing U   album      2018-10-26        
##  2 Robyn       Honey                 2 Human Being album      2018-10-26        
##  3 Robyn       Honey                 3 Because It… album      2018-10-26        
##  4 Robyn       Honey                 4 Baby Forgi… album      2018-10-26        
##  5 Robyn       Honey                 5 Send To Ro… album      2018-10-26        
##  6 Robyn       Honey                 6 Honey       album      2018-10-26        
##  7 Robyn       Honey                 7 Between Th… album      2018-10-26        
##  8 Robyn       Honey                 8 Beach2k20   album      2018-10-26        
##  9 Robyn       Honey                 9 Ever Again  album      2018-10-26        
## 10 Robyn       Honey                 1 Missing U   album      2018-10-26        
## # ℹ 1,131 more rows
## # ℹ 18 more variables: album_release_year <dbl>, danceability <dbl>,
## #   energy <dbl>, key <dbl>, loudness <dbl>, mode <dbl>, speechiness <dbl>,
## #   acousticness <dbl>, instrumentalness <dbl>, liveness <dbl>, valence <dbl>,
## #   tempo <dbl>, time_signature <dbl>, explicit <lgl>, type <chr>,
## #   key_name <chr>, mode_name <chr>, key_mode <chr>
…
alternativt

dat %>%                                                              # Ta datan, och sen
  filter(artist_name %in% c("Robyn", "Esperanza Spalding")) %>%      # filtrera för artister, och sen
  filter(key_name == "D#")                                           # filtrera för tonart

För att se fler eller färre rader kan man använda en pipe %>% till funktionen print(). Följande skriver ut fem rader

dat %>%                                                              # Ta datan, och sen
  filter(artist_name %in% c("Robyn", "Esperanza Spalding")) %>%      # filtrera för artister, och sen
  filter(key_name == "D#")  %>%                                      # filtrera för tonart, och sen
  print(n = 5)                                                       # skriv ut de fem första raderna

## # A tibble: 21 × 24
##   artist_name   album_name track_number track_name album_type album_release_date
##   <chr>         <chr>             <dbl> <chr>      <chr>      <chr>             
## 1 Esperanza Sp… SONGWRIGH…            7 Formwela 7 album      2021-09-24        
## 2 Esperanza Sp… 12 Little…            2 To Tide U… album      2019-05-10        
## 3 Esperanza Sp… 12 Little…            3 'Til the … album      2019-05-10        
## 4 Esperanza Sp… Emily’s D…            7 Ebony And… album      2016-01-01        
## 5 Esperanza Sp… Emily’s D…            7 Ebony And… album      2016-01-01        
## # ℹ 16 more rows
## # ℹ 18 more variables: album_release_year <dbl>, danceability <dbl>,
## #   energy <dbl>, key <dbl>, loudness <dbl>, mode <dbl>, speechiness <dbl>,
## #   acousticness <dbl>, instrumentalness <dbl>, liveness <dbl>, valence <dbl>,
## #   tempo <dbl>, time_signature <dbl>, explicit <lgl>, type <chr>,
## #   key_name <chr>, mode_name <chr>, key_mode <chr>

Om man istället vill göra ett urval av kolumner kan man använda select(). Som argument anges de kolumner man vill välja, t.ex.

dat %>%                                # Ta datan, och sen
  select(artist_name, album_name)      # välj kolumnerna artist_name och album_name

## # A tibble: 89,105 × 2
##    artist_name album_name                     
##    <chr>       <chr>                          
##  1 100 gecs    1000 gecs and The Tree of Clues
##  2 100 gecs    1000 gecs and The Tree of Clues
##  3 100 gecs    1000 gecs and The Tree of Clues
##  4 100 gecs    1000 gecs and The Tree of Clues
##  5 100 gecs    1000 gecs and The Tree of Clues
##  6 100 gecs    1000 gecs and The Tree of Clues
##  7 100 gecs    1000 gecs and The Tree of Clues
##  8 100 gecs    1000 gecs and The Tree of Clues
##  9 100 gecs    1000 gecs and The Tree of Clues
## 10 100 gecs    1000 gecs and The Tree of Clues
## # ℹ 89,095 more rows

Som avslutning ges ett lite mer komplicerat exempel på ett urval av artist, år och spår för spår med ett tempo över 180 bpm släppta under 2015.

dat %>%                                                    # Ta datan och sen
  filter(album_release_year == 2015,                       # filtrera för rader där år är 2015, och 
         tempo > 180) %>%                                  # tempot över 160, och sen
  select(artist_name, album_release_year, track_name)      # selektera på artist, år och spår

## # A tibble: 129 × 3
##    artist_name            album_release_year track_name                         
##    <chr>                               <dbl> <chr>                              
##  1 A Sunny Day In Glasgow               2015 The Strange Presents of Idols (Mer…
##  2 A$AP Rocky                           2015 Lord Pretty Flacko Jodye 2 (LPFJ2) 
##  3 A$AP Rocky                           2015 Lord Pretty Flacko Jodye 2 (LPFJ2) 
##  4 Anderson .Paak                       2015 Off the Ground                     
##  5 Arcangel                             2015 50 Sombras De Austin               
##  6 Arcangel                             2015 50 Sombras de Austin               
##  7 Arcangel                             2015 50 Sombras de Austin               
##  8 Arcangel                             2015 50 Sombras de Austin               
##  9 Björk                                2015 Notget - Live                      
## 10 Björk                                2015 Notget                             
## # ℹ 119 more rows
…
